<svg xmlns="http://www.w3.org/2000/svg" xmlns:xlink="http://www.w3.org/1999/xlink" viewBox="0 0 304 240">
  <path d="M303.8 239.1V25.7c-.5-13.6-.9-34.3-31.4-21.9C221.7 22.4 170.6 40.2 120.3 60 82.2 75 40.5 91.4 19 171.6c-5.6 21-13.4 46.4-19 67.5h49.4c4.6-17 10.2-38.4 14.8-55.4 15.4-57.4 45.6-69.3 73.2-80.1C176.9 88 217 73.8 257 59.1V239h46.8z" fill="#3a4757"/>
  <path d="M119 124.5c-5 2.8-9.8 6.1-14.1 9.9-14.9 13.3-23 32.2-28 51.1l-14.1 51.9H119V124.5z" fill="#f7941d"/>
  <path d="M180.1 99.7c-12.7 4.7-25.3 9.6-38 14.5-3.4 1.3-6.7 2.6-10 4v119.2H180l.1-137.7z" fill="#bfd730"/>
  <path d="M243.8 237.4v-161c-16.8 6.1-33.7 12.2-50.5 18.4v142.6h50.5z" fill="#00bad9"/>
</svg>